{
  "definitions": {},
  "$schema": "http://json-schema.org/draft-06/schema#",
  "$id": "http://example.com/example.json",
  "type": "object",
  "additionalProperties": false,
  "properties": {
    "username": {
      "$id": "/properties/username",
      "type": "string",
      "title": "The Username Schema.",
      "description": "An explanation about the purpose of this instance.",
      "default": "",
      "examples": [
        "Joffry"
      ]
    },
    "password": {
      "$id": "/properties/password",
      "type": "string",
      "title": "The Password Schema.",
      "description": "An explanation about the purpose of this instance.",
      "default": "",
      "examples": [
        "gagaga"
      ]
    },
    "roles": {
      "$id": "/properties/roles",
      "type": "array",
      "items": {
        "$id": "/properties/roles/items",
        "type": "string",
        "title": "The 0 Schema.",
        "description": "An explanation about the purpose of this instance.",
        "default": "",
        "examples": [
          "admin"
        ]
      }
    },
    "projectAssignments": {
      "$id": "/properties/projectAssignments",
      "type": "array",
      "items": {
        "$id": "/properties/projectAssignments/items",
        "type": "object",
        "additionalProperties": false,
        "properties": {
          "projectId": {
            "$id": "/properties/projectAssignments/items/properties/projectId",
            "type": "string",
            "title": "The Projectid Schema.",
            "description": "An explanation about the purpose of this instance.",
            "default": "",
            "examples": [
              "id1"
            ]
          },
          "permission": {
            "$id": "/properties/projectAssignments/items/properties/permission",
            "type": "array",
            "items": {
              "$id": "/properties/projectAssignments/items/properties/permission/items",
              "type": "string",
              "title": "The 0 Schema.",
              "description": "An explanation about the purpose of this instance.",
              "default": "",
              "examples": [
                "ALL"
              ]
            }
          }
        },
        "required": [
          "projectId",
          "permission"
        ]
      }
    }
  },
  "required": [
    "username",
    "password",
    "roles"
  ]
}